{
   "browserExtensionDescription": {
      "message": "AdGuard Extra, AdGuard veya başka herhangi bir reklam aracı gibi tam ölçekli bir reklam engelleyiciyle kullanılması beklenen tamamlayıcı bir eklentidir. Araç çubuğundaki uzantı simgesi için kullanıcı arabirimi kaydetme olanağı sağlamaz."
   },
   "browserExtensionHostsMessage": {
      "message": "{link}Burada{/link} çalıştığı sitelerin listesine göz atabilirsiniz. Lütfen, bu listede bulunmayan sitelerde hiçbir şey yapmadığını unutmayın."
   },
   "browserExtensionName": {
      "message": "AdGuard Extra tarayıcı uzantısı"
   },
   "browserExtensionReportMessage": {
      "message": "Bununla ilgili herhangi bir sorunla karşılaşırsanız, lütfen {link}bunları bize bildirin{/link}."
   },
   "userscriptDescription": {
      "message": "AdGuard Extra, normal reklam engelleme kurallarının yeterli olmadığı karmaşık durumları çözmek için tasarlanmıştır."
   },
   "userscriptName": {
      "message": "AdGuard Extra"
   }
}
