{
   "browserExtensionDescription": {
      "message": "AdGuard Extra ist eine Zusatzerweiterung, die mit vollwertigem Werbeblocker wie AdGuard oder anderen verwendet werden kann. Sie bietet keine Benutzeroberfläche außer dem Symbol für die Erweiterung in der Symbolleiste."
   },
   "browserExtensionHostsMessage": {
      "message": "{link}Hier{/link} können Sie die Liste der Websites einsehen, auf denen es funktioniert. Bitte beachten Sie, dass nur Websites gefiltert werden, die in der Liste enthalten sind."
   },
   "browserExtensionName": {
      "message": "AdGuard Extra-Browsererweiterung"
   },
   "browserExtensionReportMessage": {
      "message": "Wenn Sie dabei auf Probleme stoßen, {link}melden Sie uns diese bitte{/link}."
   },
   "userscriptDescription": {
      "message": "AdGuard Extra wurde entwickelt, um komplexe Fälle zu lösen, wenn normalen Regeln zum Sperren von Werbung nicht ausreichen."
   },
   "userscriptName": {
      "message": "AdGuard Extra"
   }
}
