{
   "browserExtensionDescription": {
      "message": "AdGuard Extra es una extensión complementaria que se utiliza con un bloqueador de anuncios a gran escala como AdGuard o cualquier otro. No proporciona ninguna interfaz de usuario, salvo el icono de la extensión en la barra de herramientas."
   },
   "browserExtensionHostsMessage": {
      "message": "{link}Aquí{/link} puedes consultar la lista de los sitios web donde funciona. Ten en cuenta que no hace nada en los sitios web que no están en esta lista."
   },
   "browserExtensionName": {
      "message": "Extensión de navegador AdGuard Extra"
   },
   "browserExtensionReportMessage": {
      "message": "Si encuentras algún problema, por favor {link}infórmanos{/link}."
   },
   "userscriptDescription": {
      "message": "AdGuard Extra está diseñado para resolver casos complicados cuando las reglas regulares para bloqueo de anuncios no son suficientes."
   },
   "userscriptName": {
      "message": "AdGuard Extra"
   }
}
