{
   "browserExtensionDescription": {
      "message": "AdGuard Extra je sprievodné rozšírenie, ktoré sa má používať s blokovaním reklám v plnom rozsahu, ako je AdGuard alebo iné. Neposkytuje žiadne užívateľské rozhranie na uloženie ikony rozšírenia na paneli nástrojov."
   },
   "browserExtensionHostsMessage": {
      "message": "{link}Tu{/link} si môžete pozrieť zoznam webových stránok, na ktorých funguje. Upozorňujeme, že na webových stránkach, ktoré nie sú na tomto zozname, nerobí nič."
   },
   "browserExtensionName": {
      "message": "AdGuard Extra rozšírenie prehliadača"
   },
   "browserExtensionReportMessage": {
      "message": "Ak narazíte na akékoľvek problémy, {link}nahláste nám ich{/link}."
   },
   "userscriptDescription": {
      "message": "AdGuard Extra má za úlohu riešiť zložité prípady, keď bežné pravidlá blokovania reklám nestačia."
   },
   "userscriptName": {
      "message": "AdGuard Extra"
   }
}
