{
   "browserExtensionDescription": {
      "message": "AdGuard Extra é uma extensão complementar que deve ser usada com um bloqueador de anúncios em escala real como o AdGuard ou qualquer outro. Ele não fornece nenhuma interface de usuário exceto o ícone da extensão na barra de ferramentas."
   },
   "browserExtensionHostsMessage": {
      "message": "{link}Aqui{/link} você pode conferir a lista dos sites onde ele funciona. Observe que ele não faz nada nos sites que não estão nesta lista."
   },
   "browserExtensionName": {
      "message": "Extensão para navegador do AdGuard Extra"
   },
   "browserExtensionReportMessage": {
      "message": "Se você encontrar algum problema. Por favor, {link}informe-nos{/link}."
   },
   "userscriptDescription": {
      "message": "O AdGuard Extra é indicado para resolver casos complicados onde as regras regulares de bloqueio de anúncios não são suficientes."
   },
   "userscriptName": {
      "message": "AdGuard Extra"
   }
}
