{
   "browserExtensionDescription": {
      "message": ""
   },
   "browserExtensionHostsMessage": {
      "message": ""
   },
   "browserExtensionName": {
      "message": ""
   },
   "browserExtensionReportMessage": {
      "message": ""
   },
   "userscriptDescription": {
      "message": ""
   },
   "userscriptName": {
      "message": "AdGuard Extra"
   }
}
