{
   "alert_popup_filter_enabled_desc": {
      "message": "%filter_name%\" быў падключаны аўтаматычна."
   },
   "alert_popup_filter_enabled_title": {
      "message": "Аўтаматычнае падключэнне фільтра"
   },
   "background_tab_title": {
      "message": "Фонавая ўкладка"
   },
   "blocking_pages_advanced_button": {
      "message": "Пашыраныя"
   },
   "blocking_pages_btn_go_back": {
      "message": "Назад"
   },
   "blocking_pages_btn_proceed": {
      "message": "Усё адно працягнуць"
   },
   "blocking_pages_malware": {
      "message": "Дадзеная ўэб-старонка \u003Cstrong>%host%\u003C/strong> можа ўтрымваць шкоднае Па. Яна была заблакавана ў адпаведнасці з вашымі наладамі бяспекі."
   },
   "blocking_pages_more_info_button": {
      "message": "Дэталёвая інфармацыя"
   },
   "blocking_pages_page_title": {
      "message": "Доступ заблакаваны"
   },
   "blocking_pages_phishing": {
      "message": "Дадзеная ўэб-старонка \u003Cstrong>%host%\u003C/strong> можа з'яўляцца фішынгавай. Яна была заблакавана ў адпаведнасці з вашымі наладамі бяспекі."
   },
   "blocking_pages_rule_content_title": {
      "message": "AdGuard перадухіліў загрузку гэтай старонкі ў адпаведнасці з наступным правілам фільтрацыі"
   },
   "blocking_pages_rule_header_title": {
      "message": "Запыт заблакаваны AdGuard"
   },
   "blocking_pages_safe_header_title": {
      "message": "AdGuard заблакаваў доступ да гэтай старонкі"
   },
   "close_button_title": {
      "message": "Зачыніць"
   },
   "context_block_site_ads": {
      "message": "Заблакаваць рэкламу на сайце..."
   },
   "context_block_site_element": {
      "message": "Заблакаваць элемент..."
   },
   "context_complaint_website": {
      "message": "Дадаць скаргу на гэты сайт…"
   },
   "context_disable_protection": {
      "message": "Прыпыніць абарону AdGuard"
   },
   "context_enable_protection": {
      "message": "Аднавіць абарону AdGuard"
   },
   "context_open_log": {
      "message": "Журнал фільтрацыі..."
   },
   "context_open_settings": {
      "message": "Наладзіць AdGuard..."
   },
   "context_security_report": {
      "message": "Праверыць бяспеку сайта..."
   },
   "context_site_exception": {
      "message": "Сайт знаходзіцца ў вынятках"
   },
   "context_site_filtering_disabled": {
      "message": "AdGuard не працуе на гэтым дамене"
   },
   "context_site_filtering_off": {
      "message": "Адключыць фільтрацыю на гэтым сайце"
   },
   "context_site_filtering_on": {
      "message": "Уключыць фільтрацыю на гэтым сайце"
   },
   "context_site_protection_disabled": {
      "message": "Абарона AdGuard прыпынена"
   },
   "context_update_antibanner_filters": {
      "message": "Праверыць абнаўленні фільтраў"
   },
   "description": {
      "message": "Непераўзыдзеная абарона ад рэкламы і ўсплывальных вокнаў. Бракіруе рэкламу на Facebook, YouTube і ўсіх іншых сайтах."
   },
   "filtering_clear_log_events": {
      "message": "Ачысціць журнал"
   },
   "filtering_log_badge_tooltip_http_req_method": {
      "message": "Метод HTTP-запроса"
   },
   "filtering_log_badge_tooltip_http_status_code": {
      "message": "Код стану HTTP"
   },
   "filtering_log_badge_tooltip_third_party": {
      "message": "Пабочныя запыты"
   },
   "filtering_log_details_modal_back_button": {
      "message": "Назад да запыту"
   },
   "filtering_log_details_modal_beautify_button": {
      "message": "Аптымізаваць"
   },
   "filtering_log_details_modal_try_again": {
      "message": "Паўтарыць спробу"
   },
   "filtering_log_filter_allowed": {
      "message": "Дазволена"
   },
   "filtering_log_filter_blocked": {
      "message": "Заблакаваны"
   },
   "filtering_log_filter_modified": {
      "message": "Зменена"
   },
   "filtering_log_filter_regular": {
      "message": "Звычайны"
   },
   "filtering_log_filter_user_rules": {
      "message": "Карыстацкія правілы"
   },
   "filtering_log_hide_referrer": {
      "message": "Referrer утоены ад старонніх бакоў"
   },
   "filtering_log_hide_search_queries": {
      "message": "Пошукавыя запыты ўтоены"
   },
   "filtering_log_in_allowlist": {
      "message": "Гэты сайт у белым спісе"
   },
   "filtering_log_modified_rules": {
      "message": "Змененыя правілы:"
   },
   "filtering_log_preserve_log_off": {
      "message": "Захоўваць часопіс: ВЫКЛ"
   },
   "filtering_log_preserve_log_on": {
      "message": "Захоўваць часопіс: УКЛ"
   },
   "filtering_log_privacy_applied_rules": {
      "message": "Прыменены правілы Антытрэкінгу"
   },
   "filtering_log_remove_client_data": {
      "message": "Загаловак X-Client-Data выдалены"
   },
   "filtering_log_search_string": {
      "message": "Увядзіце радок пошуку"
   },
   "filtering_log_search_tabs_placeholder": {
      "message": "Пошук па ўкладках"
   },
   "filtering_log_send_not_track": {
      "message": "Загаловак Do-Not-Track адпраўлены"
   },
   "filtering_log_status_allowed": {
      "message": "Дазволена"
   },
   "filtering_log_status_blocked": {
      "message": "Заблакавана"
   },
   "filtering_log_status_modified": {
      "message": "Зменена"
   },
   "filtering_log_status_processed": {
      "message": "Апрацавана"
   },
   "filtering_log_tag_tooltip_allowed": {
      "message": "Толькі дазволеныя і адблакаваныя запыты"
   },
   "filtering_log_tag_tooltip_blocked": {
      "message": "Толькі заблакаваныя запыты"
   },
   "filtering_log_tag_tooltip_css": {
      "message": "Табліцы стыляў"
   },
   "filtering_log_tag_tooltip_first_party": {
      "message": "Толькі ўнутраныя запыты"
   },
   "filtering_log_tag_tooltip_html": {
      "message": "Дакументы і паддакументы"
   },
   "filtering_log_tag_tooltip_img": {
      "message": "Выявы"
   },
   "filtering_log_tag_tooltip_js": {
      "message": "Скрыпты"
   },
   "filtering_log_tag_tooltip_media": {
      "message": "Медыа"
   },
   "filtering_log_tag_tooltip_modified": {
      "message": "Толькі змененыя запыты"
   },
   "filtering_log_tag_tooltip_other": {
      "message": "Шрыфты, пінгі, WebRTC, WebSocket і г. д."
   },
   "filtering_log_tag_tooltip_regular": {
      "message": "Толькі запыты, апрацаваныя без фільтрацыі"
   },
   "filtering_log_tag_tooltip_third_party": {
      "message": "Толькі пабочныя запыты"
   },
   "filtering_log_tag_tooltip_user_rules": {
      "message": "Толькі запыты, змененыя карыстацкімі правіламі"
   },
   "filtering_log_tag_tooltip_xhr": {
      "message": "Запыты XMLHttpRequests і fetch"
   },
   "filtering_log_title": {
      "message": "Журнал фільтрацыі"
   },
   "filtering_modal_add_rule": {
      "message": "Дадаць правіла"
   },
   "filtering_modal_add_title": {
      "message": "Даданне правіла"
   },
   "filtering_modal_apply_domains": {
      "message": "Ужыць правіла для ўсіх сайтаў"
   },
   "filtering_modal_block": {
      "message": "Заблакаваць"
   },
   "filtering_modal_block_again": {
      "message": "Блакаваць ізноў"
   },
   "filtering_modal_converted_to": {
      "message": "Заменена на:"
   },
   "filtering_modal_cookie": {
      "message": "Cookies:"
   },
   "filtering_modal_copied": {
      "message": "Скапіявана"
   },
   "filtering_modal_copy_to_clipboard": {
      "message": "Капіяваць"
   },
   "filtering_modal_element": {
      "message": "Элемент:"
   },
   "filtering_modal_exception_title": {
      "message": "Даданне вынятку"
   },
   "filtering_modal_filter": {
      "message": "Фільтр:"
   },
   "filtering_modal_filtering_status_text_desc": {
      "message": "Статус фільтрацыі:"
   },
   "filtering_modal_hide_full_element": {
      "message": "Схаваць поўны элемент"
   },
   "filtering_modal_hide_full_rule": {
      "message": "Схаваць поўнае правіла"
   },
   "filtering_modal_hide_full_url": {
      "message": "Схаваць поўны URL"
   },
   "filtering_modal_important": {
      "message": "Усталяваць для правіла найвышэйшы прыярытэт"
   },
   "filtering_modal_info_title": {
      "message": "Інфармацыя пра запыт"
   },
   "filtering_modal_open_in_new_tab": {
      "message": "Адкрыць у новай укладцы"
   },
   "filtering_modal_options_desc": {
      "message": "Опцыі:"
   },
   "filtering_modal_patterns_desc": {
      "message": "Шаблоны:"
   },
   "filtering_modal_preview_request_button": {
      "message": "Перадпрагляд"
   },
   "filtering_modal_preview_title": {
      "message": "Перадпрагляд"
   },
   "filtering_modal_privacy": {
      "message": "Антытрэкінг:"
   },
   "filtering_modal_remove_allowlist": {
      "message": "Выдаліць з белага спіса"
   },
   "filtering_modal_remove_param": {
      "message": "Выдаліць параметры запыту"
   },
   "filtering_modal_remove_user": {
      "message": "Выдаліць правіла"
   },
   "filtering_modal_rule": {
      "message": "Правіла:"
   },
   "filtering_modal_rule_text_desc": {
      "message": "Тэкст правіла:"
   },
   "filtering_modal_rules": {
      "message": "Правілы:"
   },
   "filtering_modal_show_full_element": {
      "message": "Паказаць поўны элемент"
   },
   "filtering_modal_show_full_rule": {
      "message": "Паказаць поўнае правіла"
   },
   "filtering_modal_show_full_url": {
      "message": "Паказаць поўны URL"
   },
   "filtering_modal_source": {
      "message": "Крыніца:"
   },
   "filtering_modal_status_text_desc": {
      "message": "Статус:"
   },
   "filtering_modal_status_text_error": {
      "message": "Адказу не атрымана"
   },
   "filtering_modal_status_text_loading": {
      "message": "Запампоўка..."
   },
   "filtering_modal_third_party": {
      "message": "Ужыць толькі да пабочных запытаў"
   },
   "filtering_modal_type": {
      "message": "Тып:"
   },
   "filtering_modal_unblock": {
      "message": "Разблакаваць"
   },
   "filtering_refresh_tab_short": {
      "message": "Абнавіць"
   },
   "filtering_table_empty_reload_page_desc": {
      "message": "\u003Creset>Адключыце фільтры\u003C/reset> або \u003Crefresh>перазагрузіце старонку\u003C/refresh> , каб убачыць журналы падзей фільтрацыі."
   },
   "filtering_table_filter": {
      "message": "Фільтр"
   },
   "filtering_table_rule": {
      "message": "Правіла фільтрацыі"
   },
   "filtering_table_source": {
      "message": "Крыніца"
   },
   "filtering_table_status": {
      "message": "Статус"
   },
   "filtering_table_type": {
      "message": "Тып"
   },
   "filtering_type_all": {
      "message": "Усе"
   },
   "filtering_type_other": {
      "message": "Іншае"
   },
   "filters_download_loading": {
      "message": "Калі ласка, пачакайце ідзе запампоўка базы фільтраў..."
   },
   "filters_download_title": {
      "message": "Загрузка базы фільтраў..."
   },
   "fullscreen_user_rules_title": {
      "message": "Карыстальніцкі фільтр"
   },
   "group_description_adblocking": {
      "message": "Наладзьце блакаванне рэкламы, каб раз і назаўжды пазбыцца надакучлівых банараў, усплыўных вокнаў, відэарэкламы і іншых раздражняльнікаў."
   },
   "group_description_annoyances": {
      "message": "Прыбярыце ўсплыўныя вокны і іншыя раздражняльныя апавяшчэнні, напрыклад апавяшчэнні пра файлы cookie."
   },
   "group_description_custom": {
      "message": "Стварайце свае фільтры, каб яшчэ больш дэталёва наладзіць ўэб-фільтрацыю пад сябе."
   },
   "group_description_lang": {
      "message": "Не абмяжоўвайце сябе — блакуйце рэкламу на сайтах на ўсякіх мовах."
   },
   "group_description_miscellaneous": {
      "message": "Дадатковыя налады, каб зрабіць ўэб-сёрфінг яшчэ зручнейшым з дапамогай AdGuard."
   },
   "group_description_security": {
      "message": "Абараніце сябе ад шкодных праграм, фішынгу і іншых анлайн-пагроз."
   },
   "group_description_social": {
      "message": "Схавайце непатрэбныя кнопкі «Падабаецца», «Падзяліцца» і іншыя віджэты сацыяльных сетак."
   },
   "group_description_stealth": {
      "message": "Абараніце асабістыя звесткі ад анлайн-трэкераў, заблакаваўшы ўсе вядомыя папулярныя метады асочвання."
   },
   "name": {
      "message": "AdGuard Антыбанар"
   },
   "options_about": {
      "message": "Пра нас"
   },
   "options_about_title": {
      "message": "Браўзарнае пашырэнне AdGuard"
   },
   "options_about_version": {
      "message": "Версія"
   },
   "options_acknowledgment": {
      "message": "Падзякі"
   },
   "options_add_custom_filter": {
      "message": "Дадаць фільтр"
   },
   "options_allowlist": {
      "message": "Белы спіс"
   },
   "options_allowlist_alert_invert": {
      "message": "Белы спіс інвертаваны. Рэклама блакуецца толькі на сайтах са спіса. \u003Ca>Адключыць\u003C/a>"
   },
   "options_allowlist_desc": {
      "message": "AdGuard не фільтруе ўэб-сайты з белага спіса."
   },
   "options_allowlist_invert": {
      "message": "Інвертаваць белы спіс"
   },
   "options_allowlist_invert_desc": {
      "message": "Разблакаваць рэкламу ўсюды, акрамя белага спіса."
   },
   "options_antibanner_custom_filter_already_exists": {
      "message": "Гэты карыстальніцкі фільтр ужо даданы"
   },
   "options_antibanner_custom_group": {
      "message": "Карыстальніцкі"
   },
   "options_antibanner_rules_count": {
      "message": "Колькасць фільтраў: %rules_count%"
   },
   "options_block_acceptable_ads": {
      "message": "Блакаваць пошукавую рэкламу і самарэкламу сайтаў"
   },
   "options_block_acceptable_ads_desc": {
      "message": "Пазбудзьцеся \u003Ca>самарэкламы сайтаў і кантэкставай рэкламы\u003C/a>, якая з'яўляецца ў выніках пошуку."
   },
   "options_block_known_trackers_description": {
      "message": "Калі гэта опцыя ўлучана, фільтр абароны ад асочвання AdGuard змагаецца з усімі вядомымі трэкерамі."
   },
   "options_block_known_trackers_title": {
      "message": "Блакаваць вядомыя трэкеры"
   },
   "options_check_update": {
      "message": "Праверыць абнаўленні"
   },
   "options_check_update_progress": {
      "message": "Праверка..."
   },
   "options_clear_stats_confirm_modal_clear_button": {
      "message": "Ачысціць"
   },
   "options_clear_stats_confirm_modal_title": {
      "message": "Ачысціць статыстыку?"
   },
   "options_collect_hit_stats_desc": {
      "message": "Адпраўляйце \u003Ca>ананімную статыстыку выкарыстання рэкламных фільтраў\u003C/a>, гэта дапаможа нам палепшыць і аптымізаваць іх."
   },
   "options_collect_hit_stats_title": {
      "message": "Адпраўляць статыстыку выкарыстоўвання фільтраў"
   },
   "options_confirm_modal_cancel_button": {
      "message": "Скасаванне"
   },
   "options_copyright": {
      "message": "Усе правы захаваныя."
   },
   "options_disable_webrtc_desc": {
      "message": "Праз WebRTC можа вызначаны ваш IP-адрас, нават калі вы выкарыстоўваеце проксі-сервер ці VPN. Адключэнне WebRTC можа прывесці да паломкі некаторых ўэб-сайтаў."
   },
   "options_disable_webrtc_title": {
      "message": "Блакаваць WebRTC"
   },
   "options_discuss": {
      "message": "Абмеркаваць AdGuard"
   },
   "options_do_you_like_question": {
      "message": "Падабаецца AdGuard?"
   },
   "options_editor_close_fullscreen_button_tooltip": {
      "message": "Выйсце з аконнага рэжыму"
   },
   "options_editor_indicator_saved": {
      "message": "Захавана"
   },
   "options_editor_indicator_saving": {
      "message": "Захоўванне..."
   },
   "options_editor_open_fullscreen_button_tooltip": {
      "message": "Адкрыць у новым акне"
   },
   "options_editor_save": {
      "message": "Захаваць"
   },
   "options_empty_custom_filter": {
      "message": "У Вас пакуль няма карыстацкіх фільтраў"
   },
   "options_enable_autodetect_filter": {
      "message": "Аўтаматычна падключаць найболей прыдатныя фільтры"
   },
   "options_enable_autodetect_filter_desc": {
      "message": "Фільтры для пэўных моў будуць улучацца ў залежнасці ад мовы сайта."
   },
   "options_export_settings": {
      "message": "Экспарт налад"
   },
   "options_filters": {
      "message": "Фільтры"
   },
   "options_filters_empty_title": {
      "message": "Нічога не знойдзена"
   },
   "options_filters_enabled": {
      "message": "Уключаны:"
   },
   "options_filters_enabled_and_last": {
      "message": "%enabled% і %last%"
   },
   "options_filters_enabled_and_more": {
      "message": "%enabled% і яшчэ %more%"
   },
   "options_filters_filter_link": {
      "message": "На галоўную"
   },
   "options_filters_filter_trusted_tag_desc": {
      "message": "Вы вырашылі давяраць гэтаму фільтру."
   },
   "options_filters_filter_updated": {
      "message": "абноўлена:"
   },
   "options_filters_filter_version": {
      "message": "версія:"
   },
   "options_filters_list_search_display_option_all_filters": {
      "message": "Усе фільтры"
   },
   "options_filters_list_search_display_option_disabled": {
      "message": "Адключана"
   },
   "options_filters_list_search_display_option_enabled": {
      "message": "Уключана"
   },
   "options_filters_no_enabled": {
      "message": "Фільтры не ўключаны"
   },
   "options_filters_search": {
      "message": "Пошук"
   },
   "options_first_party_desc": {
      "message": "Абмежаваць час існавання асноўнымі файламі cookie (хвілін)."
   },
   "options_first_party_title": {
      "message": "Самазнішчэнне асноўных файлаў cookies (не рэкамендуецца)"
   },
   "options_footer_like_us_cta": {
      "message": "Ацаніце дадатак!"
   },
   "options_general_settings": {
      "message": "Агульныя налады"
   },
   "options_github": {
      "message": "GitHub"
   },
   "options_hide_referrer_desc": {
      "message": "Прадухіліць раскрыццё для пабочных рэсурсаў сайтаў, якія вы наведваеце."
   },
   "options_hide_referrer_title": {
      "message": "Схаваць Referrer ад пабочных рэсурсаў"
   },
   "options_hide_search_queries_desc": {
      "message": "Хаваць запыты да сайтаў, наведаных з пошукавай сістэмы."
   },
   "options_hide_search_queries_title": {
      "message": "Схаваць пошукавыя запыты"
   },
   "options_import_settings": {
      "message": "Імпарт налад"
   },
   "options_leave_feedback": {
      "message": "Пакінуць водгук"
   },
   "options_miscellaneous_settings": {
      "message": "Рознае"
   },
   "options_modified_first_party_cookie": {
      "message": "Файл cookie на наведваемым сайце зменены"
   },
   "options_modified_third_party_cookie": {
      "message": "Пабочны файл cookie зменены"
   },
   "options_nav_better_than_extension": {
      "message": "Чаму праграма AdGuard лепшая за пашырэнне?"
   },
   "options_nav_compare": {
      "message": "Параўнаць"
   },
   "options_open_changelog": {
      "message": "Спіс змен"
   },
   "options_open_log": {
      "message": "Журнал фільтрацыі"
   },
   "options_popup_call_to_action": {
      "message": "Увядзіце правільны URL фільтра або шлях да файла фільтра ў поле вышэй."
   },
   "options_popup_check_false_description": {
      "message": "Памылка пры даданні карыстальніцкага фільтра."
   },
   "options_popup_check_false_title": {
      "message": "Памылка"
   },
   "options_popup_checking_filter": {
      "message": "Праверка фільтра"
   },
   "options_popup_description": {
      "message": "Вы падпішацеся на гэты фільтр."
   },
   "options_popup_filter_description": {
      "message": "Апісанне:"
   },
   "options_popup_filter_homepage": {
      "message": "Хатняя старонка:"
   },
   "options_popup_filter_rules_count": {
      "message": "Колькасць правілаў:"
   },
   "options_popup_filter_title": {
      "message": "Назва:"
   },
   "options_popup_filter_url": {
      "message": "URL:"
   },
   "options_popup_filter_version": {
      "message": "Версія:"
   },
   "options_popup_import_error_file_description": {
      "message": "Нешта пайшло не так."
   },
   "options_popup_import_error_title": {
      "message": "Памылка імпарту налад"
   },
   "options_popup_import_settings_wrong_file_ext": {
      "message": "Пашырэнне файла павінна быць %extension%"
   },
   "options_popup_import_success_title": {
      "message": "Налады паспяхова імпартаваны"
   },
   "options_popup_next_button": {
      "message": "Далей"
   },
   "options_popup_subscribe_button": {
      "message": "Падпісаццца"
   },
   "options_popup_title_placeholder": {
      "message": "Увядзіце імя фільтра"
   },
   "options_popup_trusted_filter_description": {
      "message": "Давераныя фільтры могуць выкарыстоўваць магутныя мадыфікатары правілаў фільтрацыі, якія, у сваю чаргу, могуць уяўляць небяспеку, знаходзячыся ў ненадзейных руках. Не ўсталёўвайце гэты флажок, калі цалкам не давяраеце фільтру."
   },
   "options_popup_trusted_filter_title": {
      "message": "Давераны"
   },
   "options_popup_try_again_button": {
      "message": "Паўтарыць спробу"
   },
   "options_popup_update_error": {
      "message": "Не атрымалася выканаць абнаўленне. Калі ласка паспрабуйце пазней."
   },
   "options_popup_update_filter": {
      "message": "абноўлены."
   },
   "options_popup_update_filters": {
      "message": "абноўлены."
   },
   "options_popup_update_not_found": {
      "message": "Абнаўленняў не знойдзена"
   },
   "options_popup_update_title_error": {
      "message": "Памылка абнаўлення фільтраў"
   },
   "options_popup_url_placeholder": {
      "message": "Увядзіце URL або шлях да файла фільтра"
   },
   "options_popup_url_title": {
      "message": "Новая падпіска на фільтр"
   },
   "options_popup_version_update_changelog_text": {
      "message": "Што новага ў гэтай версіі?"
   },
   "options_popup_version_update_description_major": {
      "message": "Гэта маштабнае абнаўленне пашырэння, якое дадае мноства новых функцый і паляпшэнняў."
   },
   "options_popup_version_update_description_minor": {
      "message": "Гэта версія ўтрымлівае ў асноўным выпраўленні памылак і дробныя паляпшэнні."
   },
   "options_popup_version_update_disable_notification": {
      "message": "Адключыць апавяшчэнні"
   },
   "options_popup_version_update_offer": {
      "message": "Вы ведаеце, што AdGuard даступна не толькі для гэтага браўзара?"
   },
   "options_popup_version_update_offer_button_text": {
      "message": "ДАДАТКОВАЯ ІНФАРМАЦЫЯ"
   },
   "options_popup_version_update_title_text": {
      "message": "Пашырэнне AdGuard абноўлена да версіі %current_version%"
   },
   "options_privacy": {
      "message": "Антытрэкінг"
   },
   "options_privacy_desc": {
      "message": "Абараніце свае асабістыя і канфідэнцыяльныя даныя ад тысяч анлайн-лічыльнікаў, заблакіраваўшы найбольш папулярныя спосабы адсочвання."
   },
   "options_privacy_policy": {
      "message": "Палітыка прыватнасці"
   },
   "options_privacy_title": {
      "message": "Антытрэкінг"
   },
   "options_remove_client_data_desc": {
      "message": "Блакаваць адпраўку браўзарам Google Chrome інфармацыі аб версіі і змяненнях на дамены Google."
   },
   "options_remove_client_data_title": {
      "message": "Выдаліць загаловак X-Client-Data"
   },
   "options_remove_filter_confirm_modal_ok_button": {
      "message": "Выдаліць"
   },
   "options_remove_filter_confirm_modal_title": {
      "message": "Выдаліць гэты фільтр?"
   },
   "options_report_bug": {
      "message": "Паведаміць пра памылку"
   },
   "options_reset_settings": {
      "message": "Скінуць налады"
   },
   "options_reset_settings_confirm_modal_clear_button": {
      "message": "Скінуць"
   },
   "options_reset_settings_confirm_modal_title": {
      "message": "Скінуць налады?"
   },
   "options_reset_settings_done": {
      "message": "Налады скінуты"
   },
   "options_reset_settings_error": {
      "message": "Памылка пры скідзе налад"
   },
   "options_reset_stats": {
      "message": "Скінуць статыстыку"
   },
   "options_reset_stats_done": {
      "message": "Статыстыка абнулена"
   },
   "options_safebrowsing_enabled": {
      "message": "Абарона фішынгавых і шкодных сайтаў"
   },
   "options_safebrowsing_enabled_desc": {
      "message": "Уключыце модуль бяспекі прагляду AdGuard, які выяўляе патэнцыйна шкоднасныя і фішынгавыя сайты, правяраючы іх з базай дадзеных у Інтэрнэце. \u003Ca>Чытаць больш\u003C/a>"
   },
   "options_select_theme": {
      "message": "Тэма"
   },
   "options_select_update_period_12h": {
      "message": "12 гадзін"
   },
   "options_select_update_period_1h": {
      "message": "1 гадзіна"
   },
   "options_select_update_period_24h": {
      "message": "24 гадзіны"
   },
   "options_select_update_period_48h": {
      "message": "48 гадзін"
   },
   "options_select_update_period_6h": {
      "message": "6 гадзін"
   },
   "options_select_update_period_default": {
      "message": "Прадвызначана"
   },
   "options_select_update_period_disabled": {
      "message": "Адключаны"
   },
   "options_send_not_track_desc": {
      "message": "Адпраўляць сігналы \u003Cgpc>Global Privacy Control\u003C/gpc> і \u003Cdnt>Do Not Track\u003C/dnt> наведваным ўэб-сайтам."
   },
   "options_send_not_track_title": {
      "message": "Адпраўляць загаловак Do-Not-Track"
   },
   "options_set_update_interval": {
      "message": "Аўтаматычнае абнаўленне фільтраў"
   },
   "options_set_update_interval_desc": {
      "message": "Для больш эфектыўнага блакавання фільтры трэба рэгулярна абнаўляць."
   },
   "options_settings": {
      "message": "Налады AdGuard"
   },
   "options_show_adguard_full_version_title": {
      "message": "Паказваць інфармацыю аб поўнай версіі AdGuard"
   },
   "options_show_app_updated_notification": {
      "message": "Апавяшчаць аб абнаўленні пашырэння"
   },
   "options_show_blocked_ads_count_title": {
      "message": "Паказваць колькасць заблакаванай рэкламы на іконцы AdGuard"
   },
   "options_show_context_menu_title": {
      "message": "Дадаць AdGuard у кантэкставае меню браўзара"
   },
   "options_site": {
      "message": "Афіцыйны сайт"
   },
   "options_stealth_cookies_title": {
      "message": "Файлы cookies"
   },
   "options_stealth_general_title": {
      "message": "Агульныя"
   },
   "options_stealth_miscellaneous_title": {
      "message": "Рознае"
   },
   "options_strip_tracking_params_description": {
      "message": "Выдаленне параметраў з вэб-запытаў з дапамогай фільтра адсочвання URL AdGuard."
   },
   "options_strip_tracking_params_title": {
      "message": "Выдаляць параметры адсочвання"
   },
   "options_stripped_tracking_parameters": {
      "message": "Параметры адсочвання выдалены"
   },
   "options_theme_selector_dark": {
      "message": "Цёмная"
   },
   "options_theme_selector_light": {
      "message": "Светлая"
   },
   "options_theme_selector_system": {
      "message": "Сістэмныя налады"
   },
   "options_third_party_desc": {
      "message": "Абмежаваць час існавання пабочнымі файламі cookie (хвілін)."
   },
   "options_third_party_title": {
      "message": "Самазнішчэнне пабочных файлаў cookies"
   },
   "options_update_antibanner_filters": {
      "message": "Праверыць абнаўленні фільтраў"
   },
   "options_use_optimized_filters": {
      "message": "Ужыць аптымізаваныя фільтры"
   },
   "options_use_optimized_filters_desc": {
      "message": "Спісы фільтраў, аптымізаваныя для мабільных прылад"
   },
   "options_user_rules_editor_stub_go_to_editor_button": {
      "message": "Перайсці ў рэдактар"
   },
   "options_user_rules_editor_stub_title": {
      "message": "Рэдактар ужо адкрыты"
   },
   "options_userfilter": {
      "message": "Уласны фільтр"
   },
   "options_userfilter_description_key": {
      "message": "Тут вы можаце дадаваць свае правілы. Гэта опцыя рэкамендавана для прасунутых карыстачоў, знаёмых з HTML/CSS. Прачытайце \u003Ca>кіраўніцтва\u003C/a>, каб навучыцца складаць свае правілы фільтрацыі."
   },
   "options_userfilter_export": {
      "message": "Экспарт"
   },
   "options_userfilter_import": {
      "message": "Імпарт"
   },
   "options_userfilter_line_break_off": {
      "message": "Перанос радка: ВЫКЛ"
   },
   "options_userfilter_line_break_on": {
      "message": "Перанос радка: УКЛ"
   },
   "popup_abuse_site": {
      "message": "Паведаміць пра праблему"
   },
   "popup_adguard_footer_title": {
      "message": "AdGuard для мабільнага"
   },
   "popup_adguard_for_android": {
      "message": "AdGuard для Android"
   },
   "popup_adguard_for_ios": {
      "message": "AdGuard для iOS"
   },
   "popup_block_site_ads_android": {
      "message": "Заблакаваць рэкламу"
   },
   "popup_block_site_ads_option": {
      "message": "Блакаваць рэкламу на гэтым сайце"
   },
   "popup_header_cta_link": {
      "message": "Хочаце заблакаваць больш?"
   },
   "popup_header_update_filters": {
      "message": "Праверыць абнаўленні фільтраў"
   },
   "popup_in_allowlist_android": {
      "message": "У белым спісе"
   },
   "popup_open_filtering_log": {
      "message": "Адкрыць часопіс фільтрацыі"
   },
   "popup_open_log_android": {
      "message": "Журнал фільтрацыі"
   },
   "popup_open_settings": {
      "message": "Наладзіць AdGuard"
   },
   "popup_reset_custom_rules": {
      "message": "Выдаліць усе карыстацкія правілы для гэтай старонкі"
   },
   "popup_security_report": {
      "message": "Справаздача пра бяспеку сайта"
   },
   "popup_security_report_android": {
      "message": "Справаздача пра бяспеку"
   },
   "popup_site_exception_information": {
      "message": "Нагэтым сайце фільтрацыя адключана, бо яна можа замінаць яго працы."
   },
   "popup_site_filtering_state": {
      "message": "Фільтрацыя на гэтым сайце"
   },
   "popup_site_filtering_state_disabled": {
      "message": "Абарона выключана"
   },
   "popup_site_filtering_state_enabled": {
      "message": "Абарона ўлучана"
   },
   "popup_site_filtering_state_paused": {
      "message": "Абарона прыпынена"
   },
   "popup_site_filtering_state_secure_page": {
      "message": "Абароненая старонка"
   },
   "popup_site_protection_disabled_android": {
      "message": "Абарона прыпынена"
   },
   "popup_statistics_months_apr": {
      "message": "Крас."
   },
   "popup_statistics_months_aug": {
      "message": "Жнів."
   },
   "popup_statistics_months_dec": {
      "message": "Снеж."
   },
   "popup_statistics_months_feb": {
      "message": "Люты"
   },
   "popup_statistics_months_jan": {
      "message": "Студ."
   },
   "popup_statistics_months_jul": {
      "message": "Ліп."
   },
   "popup_statistics_months_jun": {
      "message": "Чэр."
   },
   "popup_statistics_months_mar": {
      "message": "Сак."
   },
   "popup_statistics_months_may": {
      "message": "Трав."
   },
   "popup_statistics_months_nov": {
      "message": "Ліс."
   },
   "popup_statistics_months_oct": {
      "message": "Кас."
   },
   "popup_statistics_months_sep": {
      "message": "Вер."
   },
   "popup_statistics_time_day": {
      "message": "Апошнія 24 гадзіны"
   },
   "popup_statistics_time_month": {
      "message": "Мінулы месяц"
   },
   "popup_statistics_time_week": {
      "message": "Мінулы тыдзень"
   },
   "popup_statistics_time_year": {
      "message": "Мінулы год"
   },
   "popup_statistics_total": {
      "message": "Усяго"
   },
   "popup_statistics_week_days_fri": {
      "message": "Пт."
   },
   "popup_statistics_week_days_mon": {
      "message": "Пн."
   },
   "popup_statistics_week_days_sat": {
      "message": "Сб."
   },
   "popup_statistics_week_days_sun": {
      "message": "Нд."
   },
   "popup_statistics_week_days_thu": {
      "message": "Чц."
   },
   "popup_statistics_week_days_tue": {
      "message": "Аў."
   },
   "popup_statistics_week_days_wed": {
      "message": "Ср."
   },
   "popup_switch_button": {
      "message": "Пераключэнне абароны"
   },
   "popup_tab_actions": {
      "message": "Дзеянні"
   },
   "popup_tab_blocked_all_count": {
      "message": "Усяго: %num%"
   },
   "popup_tab_blocked_count": {
      "message": "Заблакавана: %num%"
   },
   "popup_tab_statistics": {
      "message": "Статыстыка"
   },
   "short_name": {
      "message": "AdGuard"
   },
   "text_collapser_hide_default": {
      "message": "Схаваць поўны тэкст"
   },
   "text_collapser_show_default": {
      "message": "Паказаць поўны тэкст"
   }
}
