{
   "browserExtensionDescription": {
      "message": "AdGuard Extra to rozszerzenie towarzyszące, które powinno być używane z pełni funkcjonalnym programem do blokowania reklam, takim jak AdGuard lub jakikolwiek inny. Nie zapewnia żadnego interfejsu użytkownika poza ikoną rozszerzenia na pasku narzędzi."
   },
   "browserExtensionHostsMessage": {
      "message": "{link}Tutaj{/link} możesz sprawdzić listę stron internetowych, na których to działa. Należy pamiętać, że nie działa to w witrynach, których nie ma na tej liście."
   },
   "browserExtensionName": {
      "message": "Rozszerzenie przeglądarki AdGuard Extra"
   },
   "browserExtensionReportMessage": {
      "message": "Jeśli napotkasz jakiekolwiek problemy, {link}zgłoś je nam{/link}."
   },
   "userscriptDescription": {
      "message": "AdGuard Extra jest przeznaczony do rozwiązywania skomplikowanych przypadków, gdy zwykłe reguły blokowania reklam nie wystarczą."
   },
   "userscriptName": {
      "message": "AdGuard Extra"
   }
}
