{
   "browserExtensionDescription": {
      "message": "AdGuard Extra הוא הרחבה מלווה אשר אמורה להיות בשימוש עם חוסם פרסומות בקנה מידה מלא כמו AdGuard או כל אחד אחר. הוא אינו מספק ממשק משתמש עבור איקון ההרחבה בסרגל הכלים."
   },
   "browserExtensionHostsMessage": {
      "message": "{link}כאן{/link} אתה יכול לבדוק את הרשימה של אתרים שבהם הוא עובד. אנא שים לב שהוא אינו עושה שום דבר באתרים אשר אינם נמצאים ברשימה."
   },
   "browserExtensionName": {
      "message": "AdGuard Extra הרחבת דפדפן"
   },
   "browserExtensionReportMessage": {
      "message": "אם אתה נתקל בסוגיות כלשהן, אנא {link}דווח לנו עליהן{/link}."
   },
   "userscriptDescription": {
      "message": "AdGuard Extra מתוכנן לפתור מקרים מורכבים בהם כללים רגילים של חסימת פרסומות אינם מספיקים."
   },
   "userscriptName": {
      "message": "AdGuard Extra"
   }
}
