# mkinitcpio preset file for the 'linux-zen' package

ALL_config="/etc/mkinitcpio.conf"
ALL_kver="/boot/vmlinuz-linux-zen"

PRESETS=('default' 'fallback')

default_config="/etc/zen_mkinitcpio.conf"
default_image="/boot/initramfs-linux-zen.img"
default_uki="/efi/EFI/Linux/zen.efi"
default_options="--splash /usr/share/systemd/bootctl/splash-arch.bmp --cmdline /etc/kernel/zen_cmdline"
#default_options=""

fallback_config="/etc/mkinitcpio.conf"
fallback_image="/boot/initramfs-linux-zen-fallback.img"
fallback_uki="/efi/EFI/Linux/zen-fallback.efi"
fallback_options="-S autodetect --cmdline /etc/kernel/zen_cmdline"
