# mkinitcpio preset file for the 'linux-clear' package

ALL_config="/etc/mkinitcpio.conf"
ALL_kver="/boot/vmlinuz-linux-clear"

PRESETS=('default' 'fallback')

#default_config="/etc/mkinitcpio.conf"
default_image="/boot/initramfs-linux-clear.img"
default_uki="/boot/EFI/Linux/clear.efi"
default_options="--splash /usr/share/systemd/bootctl/splash-arch.bmp --cmdline /etc/kernel/clear_cmdline"

#fallback_config="/etc/mkinitcpio.conf"
fallback_image="/boot/initramfs-linux-clear-fallback.img"
fallback_uki="/boot/EFI/Linux/clear-fallback.efi"
fallback_options="-S autodetect --cmdline /etc/kernel/clear_cmdline"
